{
	"label": "Trappings",
	"entries": [
		{
			"id": "Abacus",
			"name": "Abacus",
			"description": ""
		},
		{
			"id": "Ale, Keg",
			"name": "Ale, Keg",
			"description": "<p>Capacity 3 gallons. Empty kegs can be refilled for 18d</p>"
		},
		{
			"id": "Ale, pint",
			"name": "Ale, pint",
			"description": ""
		},
		{
			"id": "Amulet",
			"name": "Amulet",
			"description": ""
		},
		{
			"id": "Animal Trap",
			"name": "Animal Trap",
			"description": "<p>Used to catch game (see @Compendium[wfrp4e-core.skills.os4NKy5Oy6sRt1eh]{Outdoor Survival})</p>"
		},
		{
			"id": "Antitoxin Kit",
			"name": "Antitoxin Kit",
			"description": "<p>Contains a small knife, herbs, and a jar of leeches. A successful Heal Test with an antitoxin kit removes all Poisoned Conditions. Treatment takes at least two Rounds.</p>"
		},
		{
			"id": "Arrow",
			"name": "Arrow",
			"description": null
		},
		{
			"id": "Backpack",
			"name": "Backpack",
			"description": "<p>Counts as ‘worn’ when strapped to your back.&nbsp;</p>"
		},
		{
			"id": "Ball",
			"name": "Ball",
			"description": ""
		},
		{
			"id": "Bandage",
			"name": "Bandage",
			"description": "<p>A successful <strong>Heal</strong> or <strong>Dexterity</strong> Test removes +1 extra <em>Bleeding</em> Status.</p>"
		},
		{
			"id": "Barrel",
			"name": "Barrel",
			"description": "<p>Capacity: 32 gallons of liquid.</p>\n<p>&nbsp;</p>"
		},
		{
			"id": "Bastard Sword",
			"name": "Bastard Sword",
			"description": ""
		},
		{
			"id": "Baton ",
			"name": "Baton ",
			"description": ""
		},
		{
			"id": "Bedroll ",
			"name": "Bedroll ",
			"description": "<p>Endurance Tests rolled to resist Cold Exposure gain a bonus of +20 when resting.</p>"
		},
		{
			"id": "Black Lotus",
			"name": "Black Lotus",
			"description": "<p>This deadly plant grows in Southland jungles and is used for blade venom. Victims who suffer at least 1 Wound from a sap-coated blade immediately take 2 Poisoned Conditions. Resisted with a <strong>Difficult (–10) Endurance</strong> Test.</p>"
		},
		{
			"id": "Blanket",
			"name": "Blanket",
			"description": "<p>Endurance Tests rolled to resist Cold Exposure gain a bonus of +20 when resting.</p>"
		},
		{
			"id": "Blunderbuss",
			"name": "Blunderbuss",
			"description": ""
		},
		{
			"id": "Boat Hook",
			"name": "Boat Hook",
			"description": ""
		},
		{
			"id": "Boiled Leather Breastplate",
			"name": "Boiled Leather Breastplate",
			"description": ""
		},
		{
			"id": "Bolas",
			"name": "Bolas",
			"description": ""
		},
		{
			"id": "Bolt",
			"name": "Bolt",
			"description": ""
		},
		{
			"id": "Bomb",
			"name": "Bomb",
			"description": ""
		},
		{
			"id": "Book, Apothecary",
			"name": "Book, Apothecary",
			"description": "<p>Apothecary books are usually hand-written. A basic apothecary book contains ingredient descriptions and diagrammed instructions for brewing processes. Formulas for Digestive Tonics, Healing Draughts, and Vitality Draughts are usually included (see Herbs and Draughts). Advanced texts contain formulas for more exotic draughts.</p>"
		},
		{
			"id": "Book, Art",
			"name": "Book, Art",
			"description": "<p>Plays, poems, and ballads or perhaps musical arrangements scribbled on loose parchment, Art books come in many forms. They also include treatises on perspective, form, and style, often written by famous painters or sculptors — such as Leonardo da Miragliano — for mass printing&nbsp;</p>"
		},
		{
			"id": "Book, Cryptography",
			"name": "Book, Cryptography",
			"description": "<p>Where individual ciphers and encryption keys can be written on a single page or two, Cryptography books are often hand-scribed codices dealing with mathematics, numerology, and polyalphabetic encryption.</p>"
		},
		{
			"id": "Book, Engineer",
			"name": "Book, Engineer",
			"description": "<p>The majority of engineering books are press-printed. Engineering is an advanced science in the Empire, largely due to the Imperial Engineers’ School in Altdorf and the Dwarf Engineers’ Guild. Because of this, Engineering texts are often authored, co-authored, or edited by Dwarfs.</p>"
		},
		{
			"id": "Book, Law",
			"name": "Book, Law",
			"description": "<p>Laws vary considerably from one region to the next. Cities with printing presses compile legislation in bound volumes, whereas judges in smaller towns often rely on documents handwritten centuries ago. Law books used by travelling lawyers or judges often combine printed and written pages from different towns across the Empire, collated and bound together within the same cover</p>"
		},
		{
			"id": "Book, Magic",
			"name": "Book, Magic",
			"description": "<p>Spell grimoires are usually scribed by wizards, and their covers are often secured with locks. Sometimes grimoires are even protected by magical alarms or wards. Carrying a spell grimoire is punishable as heresy unless the owning wizard is licensed by the Colleges of Magic.</p>"
		},
		{
			"id": "Book, Medicine",
			"name": "Book, Medicine",
			"description": "<p>Medical texts can either be scribed or press-printed, depending on the authoring physician’s prestige. Illuminations are common, and usually include detailed autopsy drawings and procedural diagrams.</p>"
		},
		{
			"id": "Book, Religion",
			"name": "Book, Religion",
			"description": "<p>Religions books come in all forms in the Empire, a realm renowned for its religious observances. There is an eager market for the most popular texts, most of which are cheaply produced by printing presses.</p>"
		},
		{
			"id": "Boots",
			"name": "Boots",
			"description": ""
		},
		{
			"id": "Bow",
			"name": "Bow",
			"description": ""
		},
		{
			"id": "Bowl",
			"name": "Bowl",
			"description": ""
		},
		{
			"id": "Brass Penny",
			"name": "Brass Penny",
			"description": ""
		},
		{
			"id": "Broom",
			"name": "Broom",
			"description": ""
		},
		{
			"id": "Bucket",
			"name": "Bucket",
			"description": ""
		},
		{
			"id": "Bugman’s XXXXXX Ale, pint ",
			"name": "Bugman’s XXXXXX Ale, pint ",
			"description": "<p>Merchants travel across the Old World to purchase this potent Dwarfen ale from the famous brewery founded by Josef Bugman. Bugman’s Ale is distributed to most major cities. One mug of Bugman’s counts as 4 mugs of normal ale for intoxication purposes (see @Item[Consume Alcohol]), and grants immunity to Fear Tests for 1d10 hours.</p>"
		},
		{
			"id": "Bullet and Powder",
			"name": "Bullet and Powder",
			"description": ""
		},
		{
			"id": "Candle",
			"name": "Candle",
			"description": "<p>Provides illumination for 10 yards when lit.</p>"
		},
		{
			"id": "Canvas Tarp",
			"name": "Canvas Tarp",
			"description": ""
		},
		{
			"id": "Cart",
			"name": "Cart",
			"description": "<p>One driver and one draft animal required.</p>"
		},
		{
			"id": "Cask",
			"name": "Cask",
			"description": "<p>Capacity: 10 gallons of liquid.</p>\n<p>&nbsp;</p>"
		},
		{
			"id": "Cavalry Hammer",
			"name": "Cavalry Hammer",
			"description": ""
		},
		{
			"id": "Chalk",
			"name": "Chalk",
			"description": ""
		},
		{
			"id": "Charcoal stick",
			"name": "Charcoal stick",
			"description": ""
		},
		{
			"id": "Chicken",
			"name": "Chicken",
			"description": ""
		},
		{
			"id": "Chisel",
			"name": "Chisel",
			"description": ""
		},
		{
			"id": "Cloak",
			"name": "Cloak",
			"description": "<p>Protects wearer against the elements.&nbsp;</p>"
		},
		{
			"id": "Clothing",
			"name": "Clothing",
			"description": ""
		},
		{
			"id": "Coach",
			"name": "Coach",
			"description": "<p>Two drivers and four horses are standard.</p>"
		},
		{
			"id": "Coat",
			"name": "Coat",
			"description": "<p style=\"margin: 0in; font-family: Calibri; font-size: 11.0pt; color: #231f20;\">Protects wearer against the elements and extreme cold; without a good coat or similar, you will receive penalties to resist Cold Exposure</p>"
		},
		{
			"id": "Comb",
			"name": "Comb",
			"description": ""
		},
		{
			"id": "Cooking Pot",
			"name": "Cooking Pot",
			"description": ""
		},
		{
			"id": "Coracle",
			"name": "Coracle",
			"description": "<p>Coracles are small, lightweight boats that accommodate one person and can be carried easily. They are made from leather or bark stretched over a wood frame, and rowed with a single oar.</p>"
		},
		{
			"id": "Costume",
			"name": "Costume",
			"description": ""
		},
		{
			"id": "Courtly Garb ",
			"name": "Courtly Garb ",
			"description": "<p>Nobles’ garb features embellishments such as lace cuffs &amp; collars, excessive high-quality fabric and pointed shoes. Servants also wear courtly garb to banquets and ceremonies, although their surcoats and corsets are less ostentatious than the nobles’ fashions and can therefore be purchased at half price.&nbsp;</p>"
		},
		{
			"id": "Crossbow",
			"name": "Crossbow",
			"description": ""
		},
		{
			"id": "Crossbow Pistol",
			"name": "Crossbow Pistol",
			"description": ""
		},
		{
			"id": "Crowbar",
			"name": "Crowbar",
			"description": ""
		},
		{
			"id": "Crutch",
			"name": "Crutch",
			"description": ""
		},
		{
			"id": "Cup",
			"name": "Cup",
			"description": ""
		},
		{
			"id": "Cutlery",
			"name": "Cutlery",
			"description": ""
		},
		{
			"id": "Dagger",
			"name": "Dagger",
			"description": ""
		},
		{
			"id": "Dart",
			"name": "Dart",
			"description": ""
		},
		{
			"id": "Davrich Lamp",
			"name": "Davrich Lamp",
			"description": "<p>A safety lamp emitting the light of a candle, first developed for Reikland’s mines by Master Engineer Davrich Stephansson. It ﬂares brightly in ‘firedamp’ (explosive gasses); after [[/r 1d10]] Rounds of exposure to the lamp the firedamp will explode. It is wise to withdraw before this happens.</p>"
		},
		{
			"id": "Deck of Cards",
			"name": "Deck of Cards",
			"description": ""
		},
		{
			"id": "Destrier",
			"name": "Destrier",
			"description": "<p>Horse trained for war.</p>"
		},
		{
			"id": "Dice",
			"name": "Dice",
			"description": ""
		},
		{
			"id": "Digestive Tonic",
			"name": "Digestive Tonic",
			"description": "<p>Provides +20 to recovery Tests from stomach ailments such as the Galloping Trots or The Bloody Flux</p>"
		},
		{
			"id": "Disguise Kit",
			"name": "Disguise Kit",
			"description": "<p>Contains enough props for four disguises (e.g. wigs and make-up) and also materials for changing your appearance used by those with the Entertain (Acting) Skill (e.g. wax, fake blood, and prosthetics).</p>"
		},
		{
			"id": "Dog collar and lead",
			"name": "Dog collar and lead",
			"description": ""
		},
		{
			"id": "Doll",
			"name": "Doll",
			"description": ""
		},
		{
			"id": "Draught Horse",
			"name": "Draught Horse",
			"description": ""
		},
		{
			"id": "Ear Pick",
			"name": "Ear Pick",
			"description": ""
		},
		{
			"id": "Earth Root",
			"name": "Earth Root",
			"description": "<p>This herb is ingested to negate the effects of Buboes caused by the Black Plague (though the swellings are still significant). Further, gain a bonus of +10 on all Tests concerning the disease. <strong>Dose</strong>: 1 per day.</p>"
		},
		{
			"id": "Elf Arrow",
			"name": "Elf Arrow",
			"description": ""
		},
		{
			"id": "Elf Bow",
			"name": "Elf Bow",
			"description": ""
		},
		{
			"id": "Engineering Marvel",
			"name": "Engineering Marvel",
			"description": "<p>Only for the exceedingly rich, you commission a work of art from one of the Engineers&rsquo; Guilds, allowing you to completely ignore the loss of an ear, hand, arm, or leg, as steam hisses and machinery clicks in place of blood and muscle. Should you ever receive a Critical Wound to the marvel, it automatically breaks down, and needs to be taken back for costly repair (at least 10% of the base cost, depending upon the nature of the Critical Wound received).</p>"
		},
		{
			"id": "Eye patch",
			"name": "Eye patch",
			"description": "<p>Often decorated, an eye patch is used to cover scarred eye sockets.</p>"
		},
		{
			"id": "Face Powder",
			"name": "Face Powder",
			"description": ""
		},
		{
			"id": "False Eye",
			"name": "False Eye",
			"description": "<p>Particularly popular amongst the rich who prefer not to wear cruder eye-patches, false eyes come in many forms, from wooden to polished glass.</p>"
		},
		{
			"id": "False Leg",
			"name": "False Leg",
			"description": "<p>&nbsp;</p>\n<p>A False Leg (or just a False Foot, for half price), allows you to ignore 1 point of Movement loss due to the missing body part. Further, for 100 XP you can regain the last point of Movement Loss as you train yourself to use your new body part, and for 200 XP you relearn how to use Dodge again. This all requires you not to lose your False Leg, though.</p>\n<p>&nbsp;</p>\n<p>&nbsp;</p>"
		},
		{
			"id": "Faxtoryll",
			"name": "Faxtoryll",
			"description": "<p>When smeared on a wound, poultices made from this herbal coagulant remove all Bleeding Conditions without a Heal Test. <strong>Dose</strong>: 1 per Critical Wound.</p>"
		},
		{
			"id": "Fish Hooks",
			"name": "Fish Hooks",
			"description": "<p>Can be used to catch fish (see Gathering Food and Herbs)</p>"
		},
		{
			"id": "Flail",
			"name": "Flail",
			"description": ""
		},
		{
			"id": "Flask",
			"name": "Flask",
			"description": "<p>Capacity: 1 pint of liquid.</p>\n<p>&nbsp;</p>"
		},
		{
			"id": "Flask of Spirits",
			"name": "Flask of Spirits",
			"description": ""
		},
		{
			"id": "Floor Brush",
			"name": "Floor Brush",
			"description": ""
		},
		{
			"id": "Foil",
			"name": "Foil",
			"description": ""
		},
		{
			"id": "Food, groceries/day",
			"name": "Food, groceries/day",
			"description": ""
		},
		{
			"id": "Gavel",
			"name": "Gavel",
			"description": ""
		},
		{
			"id": "Gilded Nose",
			"name": "Gilded Nose",
			"description": "<p>Though most are made of wood or ceramic, the term gilded nose is widely used regardless. You can ignore the Fellowship loss for having no nose.</p>"
		},
		{
			"id": "Gloves",
			"name": "Gloves",
			"description": ""
		},
		{
			"id": "Gold Crown",
			"name": "Gold Crown",
			"description": ""
		},
		{
			"id": "Grain Flail",
			"name": "Grain Flail",
			"description": ""
		},
		{
			"id": "Grappling Hook",
			"name": "Grappling Hook",
			"description": "<p>Coupled with a rope, allows unscalable surfaces to be climbed.</p>"
		},
		{
			"id": "Great Axe",
			"name": "Great Axe",
			"description": ""
		},
		{
			"id": "Guild License",
			"name": "Guild License",
			"description": "<p>Guild licenses are usually printed on single sheets of parchment, stamped with an official seal, and signed by the local guild master. Guild licenses are not purchased; instead, they are granted to guild members according to each guild’s traditions and laws.</p>"
		},
		{
			"id": "Halberd",
			"name": "Halberd",
			"description": ""
		},
		{
			"id": "Hammer",
			"name": "Hammer",
			"description": ""
		},
		{
			"id": "Hand Mirror",
			"name": "Hand Mirror",
			"description": ""
		},
		{
			"id": "Hand Weapon",
			"name": "Arma de Mano",
			"description": ""
		},
		{
			"id": "Handgun",
			"name": "Handgun",
			"description": ""
		},
		{
			"id": "Hat",
			"name": "Hat",
			"description": "<p>Fine quality hats are status symbols in the Empire’s towns and cities. The more ﬂamboyant the hat, the better.</p>"
		},
		{
			"id": "Healing Draught",
			"name": "Healing Draught",
			"description": "<p>If you have more than 0 Wounds, recover Toughness Bonus Wounds immediately. <strong>Dose</strong>: 1 per encounter.</p>"
		},
		{
			"id": "Healing Poultice",
			"name": "Healing Poultice",
			"description": "<p>This foul-smelling medicinal wrap is made from animal dung and urine combined with any number of common herbs such as Sigmafoil, Tarrabeth, and Valerian. You do not suffer any Minor Infections from a Critical Wound treated with a Healing Poultice.</p>"
		},
		{
			"id": "Heartkill",
			"name": "Heartkill",
			"description": "<p>Combining the venoms from an Amphisbaena (a rare, two-headed serpent) and a Jabberslythe produces an odorless, colorless poison. When ingested, the deadly mixture inﬂicts 4 Poisoned Conditions. Resisted with a <strong>Difficult (–10) Endurance</strong> Test.</p>"
		},
		{
			"id": "Heavy Crossbow",
			"name": "Heavy Crossbow",
			"description": ""
		},
		{
			"id": "Hochland Long Rifle",
			"name": "Hochland Long Rifle",
			"description": ""
		},
		{
			"id": "Hoe",
			"name": "Hoe",
			"description": ""
		},
		{
			"id": "Homing Pigeon",
			"name": "Homing Pigeon",
			"description": ""
		},
		{
			"id": "Hood",
			"name": "Hood",
			"description": ""
		},
		{
			"id": "Hook",
			"name": "Hook",
			"description": "<p style=\"margin: 0in; font-family: Calibri; font-size: 11.0pt;\"><span style=\"color: #231f20;\">You have a hook strapped where you used to have a hand. A surprisingly nimble tool once you are used to it, you can buy back the –20 penalty on all Tests involving two hands for 100 XP per 5 you subtract from the penalty, removing the penalty completely for 400 XP. </span><strong><span style=\"color: #231f20;\">Append</span></strong><span style=\"font-weight: bold; color: #231f20;\">: </span><span style=\"color: #231f20;\">In Close Combat, a Hook counts as a Dagger</span></p>"
		},
		{
			"id": "Hunting Dog",
			"name": "Hunting Dog",
			"description": ""
		},
		{
			"id": "Improvised Shot and Powder",
			"name": "Improvised Shot and Powder",
			"description": ""
		},
		{
			"id": "Improvised Weapon",
			"name": "Improvised Weapon",
			"description": ""
		},
		{
			"id": "Incendiary",
			"name": "Incendiary",
			"description": ""
		},
		{
			"id": "Instrument",
			"name": "Instrument",
			"description": "<p>Various instruments are included in this category. The standard price and encumbrance reﬂects medium-sized instruments (e.g. mandolin, coach horn, small drum). Small instruments are half the price and 0 Encumbrance points (e.g. ﬂute, recorder, tambourine). Larger instruments are double the price and 2 Encumbrance points (e.g. harp, lute, large drum).</p>"
		},
		{
			"id": "Javelin",
			"name": "Javelin",
			"description": ""
		},
		{
			"id": "Jewellry",
			"name": "Jewellry",
			"description": "<p>Prices vary by craftsmanship, metal type, and gem value. As a general guideline, common rings without any gemstones cost 10 coins equal to their metal type (i.e. brass, silver or gold) whereas necklaces cost 20 coins of the same metal type</p>"
		},
		{
			"id": "Jug",
			"name": "Jug",
			"description": "<p>Capacity: 1 gallon of liquid.</p>\n<p>&nbsp;</p>"
		},
		{
			"id": "Key",
			"name": "Key",
			"description": ""
		},
		{
			"id": "Knife",
			"name": "Knife",
			"description": ""
		},
		{
			"id": "Knife",
			"name": "Knife",
			"description": ""
		},
		{
			"id": "Knuckledusters",
			"name": "Knuckledusters",
			"description": ""
		},
		{
			"id": "Lamp Oil",
			"name": "Lamp Oil",
			"description": "<p>Contains enough fuel for 4 hours of standard use, or 8 hours of low ﬂame equivalent to a candle.</p>"
		},
		{
			"id": "Lance",
			"name": "Lance",
			"description": ""
		},
		{
			"id": "Lantern",
			"name": "Lantern",
			"description": "<p>Provides illumination for 20 yards.</p>"
		},
		{
			"id": "Lasso",
			"name": "Lasso",
			"description": ""
		},
		{
			"id": "Lead Bullet",
			"name": "Lead Bullet",
			"description": ""
		},
		{
			"id": "Leaflet",
			"name": "Leaflet",
			"description": ""
		},
		{
			"id": "Leather Jack",
			"name": "Leather Jack",
			"description": ""
		},
		{
			"id": "Leather Jerkin",
			"name": "Leather Jerkin",
			"description": ""
		},
		{
			"id": "Leather Leggings",
			"name": "Leather Leggings",
			"description": ""
		},
		{
			"id": "Leather Skullcap",
			"name": "Leather Skullcap",
			"description": ""
		},
		{
			"id": "Legal Document",
			"name": "Legal Document",
			"description": "<p>A simple legal document such as a will, IOU or letter of intent.</p>"
		},
		{
			"id": "Light Warhorse",
			"name": "Light Warhorse",
			"description": ""
		},
		{
			"id": "Lock Picks",
			"name": "Lock Picks",
			"description": "<p>An assortment of small, variously-shaped tools needed to use the Pick Lock Skill without penalty.&nbsp;</p>"
		},
		{
			"id": "Longbow",
			"name": "Longbow",
			"description": ""
		},
		{
			"id": "Mad Cap Mushrooms",
			"name": "Mad Cap Mushrooms",
			"description": "<p>These hallucinogenic mushrooms are eaten by Goblin fanatics before battle. They induce a berserker rage, adding +10 Strength, +4 Wounds, and the Frenzy Talent. When the effect wears off, the user loses 1d10 Wounds. Non-Greenskins must also pass a <strong>Challenging (+0) Endurance Test</strong> or contract a Minor Infection. <strong>Duration</strong>: Active when chewed plus an additional 2d10 minutes.</p>"
		},
		{
			"id": "Mail Chausses",
			"name": "Mail Chausses",
			"description": ""
		},
		{
			"id": "Mail Coat",
			"name": "Mail Coat",
			"description": ""
		},
		{
			"id": "Mail Coif",
			"name": "Mail Coif",
			"description": ""
		},
		{
			"id": "Mail Shirt",
			"name": "Mail Shirt",
			"description": ""
		},
		{
			"id": "Main Gauche",
			"name": "Main Gauche",
			"description": ""
		},
		{
			"id": "Manacles",
			"name": "Manacles",
			"description": "<p>Prisoners trying to break out of manacles suffer 1 Wound and must pass a Very Hard (-30) Strength Test.</p>"
		},
		{
			"id": "Mandrake Root",
			"name": "Mandrake Root",
			"description": "<p>This highly-addictive deliriant grows under gallows, and is chewed to keep an unquiet mind still. Users must pass a Willpower Test every Round to perform an Action or a Move (choose one); further, Movement is halved. However, Cool Tests receive a bonus of +20. <strong>Duration</strong>: Active when chewed plus an additional 1d10×10 minutes.</p>"
		},
		{
			"id": "Map",
			"name": "Map",
			"description": ""
		},
		{
			"id": "Mask",
			"name": "Mask",
			"description": ""
		},
		{
			"id": "Match",
			"name": "Match",
			"description": ""
		},
		{
			"id": "Meal, inn",
			"name": "Meal, inn",
			"description": ""
		},
		{
			"id": "Military Flail",
			"name": "Military Flail",
			"description": ""
		},
		{
			"id": "Monkey",
			"name": "Monkey",
			"description": ""
		},
		{
			"id": "Moonflower",
			"name": "Moonflower",
			"description": "<p>This tranquilizer is a dried moss which grows only on leaves in the Laurelorn forest. Elves use Moonﬂower to treat Black Plague, granting a bonus of +30 to any associated Tests for Elves to resist the disease, otherwise it has no effect on their species. Others can inhale vapors from boiling the moss and if they fail a <strong>Very Hard (–30) Willpower</strong> Test will gain an Unconscious Condition; if passed, they receive a bonus of +20 to Cool Tests and gain a Fatigued Condition. Moonﬂower is used by the most expensive Physicians as an anesthetic. <strong>Duration</strong>: 1d10+5 hours.</p>"
		},
		{
			"id": "Mop",
			"name": "Mop",
			"description": ""
		},
		{
			"id": "Mule",
			"name": "Mule",
			"description": "<p>Horse trained for war.</p>"
		},
		{
			"id": "Nails ",
			"name": "Nails ",
			"description": ""
		},
		{
			"id": "Nightshade",
			"name": "Nightshade",
			"description": "<p>Consuming this herb causes the victim to fall into a deep sleep after 2-3 hours, unless an Endurance Test is passed. A Nightshade slumber lasts 1d10+4 hours. <strong>Dose</strong>: 1 per person.</p>"
		},
		{
			"id": "Paint Brush",
			"name": "Paint Brush",
			"description": ""
		},
		{
			"id": "Pan",
			"name": "Pan",
			"description": ""
		},
		{
			"id": "Parchment/sheet",
			"name": "Parchment/sheet",
			"description": ""
		},
		{
			"id": "Perfume",
			"name": "Perfume",
			"description": ""
		},
		{
			"id": "Pestle & Mortar",
			"name": "Pestle & Mortar",
			"description": ""
		},
		{
			"id": "Pewter Stein",
			"name": "Pewter Stein",
			"description": "<p>Beer mug/tankard made of pewter</p>\n<p>&nbsp;</p>"
		},
		{
			"id": "Pick",
			"name": "Pick",
			"description": ""
		},
		{
			"id": "Pick",
			"name": "Pick",
			"description": null
		},
		{
			"id": "Pike",
			"name": "Pike",
			"description": ""
		},
		{
			"id": "Pins",
			"name": "Pins",
			"description": ""
		},
		{
			"id": "Pipe and Tobacco",
			"name": "Pipe and Tobacco",
			"description": ""
		},
		{
			"id": "Pistol",
			"name": "Pistol",
			"description": ""
		},
		{
			"id": "Placard",
			"name": "Placard",
			"description": ""
		},
		{
			"id": "Plate",
			"name": "Plate",
			"description": ""
		},
		{
			"id": "Plate Bracers",
			"name": "Plate Bracers",
			"description": ""
		},
		{
			"id": "Plate Breastplate",
			"name": "Plate Breastplate",
			"description": ""
		},
		{
			"id": "Plate Helm",
			"name": "Plate Helm",
			"description": ""
		},
		{
			"id": "Plate Leggings",
			"name": "Plate Leggings",
			"description": ""
		},
		{
			"id": "Plate Open Helm",
			"name": "Plate Open Helm",
			"description": ""
		},
		{
			"id": "Pole (3 yards)",
			"name": "Pole (3 yards)",
			"description": "<p>A long pole used for barging; counts as an @Compendium[wfrp4e-core.trappings.mRU10yAWWWs5WoKt]{Improvised Weapon}</p>"
		},
		{
			"id": "Pony",
			"name": "Pony",
			"description": ""
		},
		{
			"id": "Pouch",
			"name": "Pouch",
			"description": ""
		},
		{
			"id": "Quarterstaff",
			"name": "Quarterstaff",
			"description": ""
		},
		{
			"id": "Quill Pen",
			"name": "Quill Pen",
			"description": ""
		},
		{
			"id": "Rags",
			"name": "Rags",
			"description": ""
		},
		{
			"id": "Rake",
			"name": "Rake",
			"description": ""
		},
		{
			"id": "Ranald's Delight",
			"name": "Ranald's Delight",
			"description": "<p>This highly-addictive stimulant is a synthetic compound made from sulphur, mercury and other elements. Inhaling the powder provides a bonus of +1 to Movement, and +10 to WS, S, T, and Agi. Tis last for 3 hours, after which the user suffers a penalty of –2 Movement and –20 on Weapon Skill, Strength, Toughness, and Agility. <strong>Duration</strong>: 1 day.</p>"
		},
		{
			"id": "Rapier",
			"name": "Rapier",
			"description": ""
		},
		{
			"id": "Rations, 1 day",
			"name": "Rations, 1 day",
			"description": ""
		},
		{
			"id": "Reading Lens",
			"name": "Reading Lens",
			"description": "<p>Glass lenses with handles provide a +20 bonus to Read/Write Tests for deciphering tiny or unintelligible writing. Perception Tests to search for fine details such as secret doors or compartments also receive a +20 bonus</p>"
		},
		{
			"id": "Religious Symbol",
			"name": "Religious Symbol",
			"description": ""
		},
		{
			"id": "Repeater Handgun",
			"name": "Repeater Handgun",
			"description": ""
		},
		{
			"id": "Repeater Pistol",
			"name": "Repeater Pistol",
			"description": ""
		},
		{
			"id": "Riding Horse",
			"name": "Riding Horse",
			"description": ""
		},
		{
			"id": "River Barge",
			"name": "River Barge",
			"description": "<p>Three crew are standard.</p>"
		},
		{
			"id": "Robes",
			"name": "Robes",
			"description": ""
		},
		{
			"id": "Rock",
			"name": "Rock",
			"description": ""
		},
		{
			"id": "Room, common/night",
			"name": "Room, common/night",
			"description": "<p>Guests sleeping in common rooms should be wary of thieves.</p>"
		},
		{
			"id": "Room, private/night",
			"name": "Room, private/night",
			"description": "<p>Accommodates 2 guests. Large rooms cost double the price and accommodate 4 guests.</p>"
		},
		{
			"id": "Rope, 10 yards",
			"name": "Rope, 10 yards",
			"description": ""
		},
		{
			"id": "Row Boat",
			"name": "Row Boat",
			"description": "<p>One rower is standard.</p>"
		},
		{
			"id": "Sack",
			"name": "Sack",
			"description": "<p>Requires 1 hand to carry.</p>"
		},
		{
			"id": "Sack, Large",
			"name": "Sack, Large",
			"description": "<p>Requires 1 hand to carry (or 2 hands if full).</p>"
		},
		{
			"id": "Saddle and Harness",
			"name": "Saddle and Harness",
			"description": ""
		},
		{
			"id": "Saddlebags",
			"name": "Saddlebags",
			"description": ""
		},
		{
			"id": "Salwort",
			"name": "Salwort",
			"description": "<p>When held under someone’s nose, the aroma from a crushed sprig of this herb removes 1 Stunned&nbsp;Condition. <strong>Dose</strong>: 1 per encounter.</p>"
		},
		{
			"id": "Saw",
			"name": "Saw",
			"description": ""
		},
		{
			"id": "Scepter",
			"name": "Scepter",
			"description": "<p>The highest-ranking legal officials carry scepters to indicate their status.</p>"
		},
		{
			"id": "Scroll Case",
			"name": "Scroll Case",
			"description": "<p>Counts as ‘worn’ when slung over your shoulder.</p>"
		},
		{
			"id": "Shield",
			"name": "Escudo",
			"description": ""
		},
		{
			"id": "Shield (Buckler)",
			"name": "Escudo (Rodela)",
			"description": ""
		},
		{
			"id": "Shield (Large)",
			"name": "Escudo (Grande)",
			"description": ""
		},
		{
			"id": "Shoes",
			"name": "Shoes",
			"description": ""
		},
		{
			"id": "Shortbow",
			"name": "Shortbow",
			"description": ""
		},
		{
			"id": "Sickle",
			"name": "Sickle",
			"description": ""
		},
		{
			"id": "Signet Ring",
			"name": "Signet Ring",
			"description": "<p>&nbsp;</p>\n<p>Gold rings with engraved stamps are worn by nobles and guild officials, who use them to imprint heraldry or insignia into sealing wax.</p>\n<p>&nbsp;</p>\n<p>&nbsp;</p>"
		},
		{
			"id": "Silver Shilling",
			"name": "Silver Shilling",
			"description": ""
		},
		{
			"id": "Sling",
			"name": "Sling",
			"description": ""
		},
		{
			"id": "Sling Bag",
			"name": "Sling Bag",
			"description": "<p>Counts as ‘worn’ when slung over your shoulder.</p>"
		},
		{
			"id": "Small shot and Powder",
			"name": "Small shot and Powder",
			"description": ""
		},
		{
			"id": "Spade",
			"name": "Spade",
			"description": ""
		},
		{
			"id": "Spear",
			"name": "Spear",
			"description": ""
		},
		{
			"id": "Spike",
			"name": "Spike",
			"description": ""
		},
		{
			"id": "Spirits, pint",
			"name": "Spirits, pint",
			"description": ""
		},
		{
			"id": "Spit",
			"name": "Spit",
			"description": "<p>Extracted from Chameleoleeches found in the marshes of the Empire, this extraordinarily powerful hallucinogen brings visions of something deeply desired, such as a lost lover, a dead friend, or a missing child. Called Spit on the streets, it’s popular with those lost to despair. Upon exposure, you must pass a <strong>Very Hard (–30) Toughness</strong> Test or be lost to a fully real fantasy, which is a matter for the GM to handle. <strong>Duration</strong>: 1d10 minutes.</p>"
		},
		{
			"id": "Stables/night",
			"name": "Stables/night",
			"description": ""
		},
		{
			"id": "Staff Sling",
			"name": "Staff Sling",
			"description": ""
		},
		{
			"id": "Stamp, engraved",
			"name": "Stamp, engraved",
			"description": ""
		},
		{
			"id": "Stone Bullet",
			"name": "Stone Bullet",
			"description": ""
		},
		{
			"id": "Storm Lantern",
			"name": "Storm Lantern",
			"description": "<p>Shutters protect the ﬂame from wind, and also enable the light to be directed in a 90&deg; arc or darkened altogether. Provides illumination for 20 yards, or 30 when targeted.</p>"
		},
		{
			"id": "Swordbreaker",
			"name": "Swordbreaker",
			"description": ""
		},
		{
			"id": "Tattoo",
			"name": "Tattoo",
			"description": ""
		},
		{
			"id": "Telescope",
			"name": "Telescope",
			"description": ""
		},
		{
			"id": "Tent",
			"name": "Tent",
			"description": ""
		},
		{
			"id": "Throwing Axe",
			"name": "Throwing Axe",
			"description": ""
		},
		{
			"id": "Throwing Knife",
			"name": "Throwing Knife",
			"description": ""
		},
		{
			"id": "Tinderbox",
			"name": "Tinderbox",
			"description": ""
		},
		{
			"id": "Tongs, steel",
			"name": "Tongs, steel",
			"description": ""
		},
		{
			"id": "Trade Tools (Type)",
			"name": "Trade Tools (Type)",
			"description": "<p><strong>Apothecary</strong>: Tools include pestle and mortar, spoons, jars, and weights and scales. Workshops also include oil burners and shelves full of ingredients.</p>\n<p>&nbsp;</p>\n<p><strong>Artisan</strong>: The potential range of tools used by Artisans is wide.</p>\n<p>Sample packages include:</p>\n<ul type=\"disc\">\n<li><strong>Carpenter</strong>: Hammer and nails, saw, measuring rod, chalk, and plumb lines. Workshops also include lathes, planes, clamps, and a supply of lumber.</li>\n</ul>\n<ul type=\"disc\">\n<li><strong>Engraver</strong>: Gravers, punches, wax, acid, hammer, and chisels. Workshops also include dies and presses.</li>\n</ul>\n<ul type=\"disc\">\n<li><strong>Smith</strong>: Hammer, tongs, punches, swages, bits, and augers. Workshops also include an anvil, furnace, swage block, sledgehammers, and metal ingots.</li>\n</ul>\n<p>&nbsp;</p>\n<p>Other Artisans include: Armorer, Bowyer, Brewer, Candlemaker, Calligrapher, Cartographer, Cobbler, Cook, Cooper, Embalmer, Gem Cutter, Glassblower, Goldsmith, Gunsmith, Jeweler, Leatherworker, Mason, Painter, Potter, Shipwright, Stoneworker, Tailor, Tanner, Vintner, Weaver, Weaponsmith and Woodcarver.</p>\n<p>&nbsp;</p>\n<p><strong>Artist</strong>: Brushes and paints, hammer and chisels, rasps and files, and scrapers. Workshops also include easels or pedestals and supplies of canvas, parchment, vellum, wood, clay or uncut stone.</p>\n<p><strong>Engineer</strong>: Hourglass, measuring rod, fuse cord, drafting compass, and T-square. Workshops also include pulleys, ropes, and drafting tables.</p>\n<p><strong>Herbalist</strong>: Pestle and mortar, small knives, pruning shears, and gloves. Workshops also include drying racks, strainers, funnels, bowls, and jars.</p>\n<p><strong>Navigator</strong>: Quadrant, astrolabe, charts and compasses, hourglass, and sounding line.</p>\n<p><strong>Physician</strong>: Needles and sutures, bandages, scalpel, vinegar, forceps, and a speculum. Workshops also include anatomical drawings, assorted implements, and a surgery table.&nbsp;</p>"
		},
		{
			"id": "Tweezers",
			"name": "Tweezers",
			"description": ""
		},
		{
			"id": "Unarmed",
			"name": "Unarmed",
			"description": ""
		},
		{
			"id": "Uniform",
			"name": "Uniform",
			"description": ""
		},
		{
			"id": "Vitality Draught",
			"name": "Vitality Draught",
			"description": "<p>Drinking this draught instantly removes all Fatigued&nbsp;Conditions.</p>"
		},
		{
			"id": "Wagon",
			"name": "Wagon",
			"description": "<p>One driver and two horses are standard .</p>"
		},
		{
			"id": "Walking Cane",
			"name": "Walking Cane",
			"description": "<p>Polished wooden canes with metal caps are status symbols amongst wealthier townsfolk.</p>"
		},
		{
			"id": "Warhammer",
			"name": "Warhammer",
			"description": ""
		},
		{
			"id": "Waterskin",
			"name": "Waterskin",
			"description": "<p>Counts as ‘worn’ when slung over your shoulder.</p>"
		},
		{
			"id": "Weirdroot",
			"name": "Weirdroot",
			"description": "<p>One of the most common street-drugs in the Empire, Weirdroot is chewed, bringing a sense of euphoria and pleasant hallucinations, which some suggest may be connected to the Winds of Magic. The drug gives a +10 bonus to Toughness and Willpower Tests, but a penalty of &ndash;10 to Agility, Initiative, and Intelligence Tests. <strong>Duration</strong>: Active when chewed plus an additional [[/r 1d10 * 10]] minutes.</p>"
		},
		{
			"id": "Whip",
			"name": "Whip",
			"description": ""
		},
		{
			"id": "Wine & Spirits, drink",
			"name": "Wine & Spirits, drink",
			"description": ""
		},
		{
			"id": "Wine, bottle",
			"name": "Wine, bottle",
			"description": ""
		},
		{
			"id": "Wooden Teeth",
			"name": "Wooden Teeth",
			"description": "<p>False Teeth are often beautifully carved and painted, and sometimes a significant improvement to the originals. You ignore all penalties for loss of teeth.</p>"
		},
		{
			"id": "Workshop (Type)",
			"name": "Workshop (Type)",
			"description": "<p><strong>Apothecary</strong>: Tools include pestle and mortar, spoons, jars, and weights and scales. Workshops also include oil burners and shelves full of ingredients.</p>\n<p>&nbsp;</p>\n<p><strong>Artisan</strong>: The potential range of tools used by Artisans is wide.</p>\n<p>Sample packages include:</p>\n<ul type=\"disc\">\n<li><strong>Carpenter</strong>: Hammer and nails, saw, measuring rod, chalk, and plumb lines. Workshops also include lathes, planes, clamps, and a supply of lumber.</li>\n</ul>\n<ul type=\"disc\">\n<li><strong>Engraver</strong>: Gravers, punches, wax, acid, hammer, and chisels. Workshops also include dies and presses.</li>\n</ul>\n<ul type=\"disc\">\n<li><strong>Smith</strong>: Hammer, tongs, punches, swages, bits, and augers. Workshops also include an anvil, furnace, swage block, sledgehammers, and metal ingots.</li>\n</ul>\n<p>&nbsp;</p>\n<p>Other Artisans include: Armorer, Bowyer, Brewer, Candlemaker, Calligrapher, Cartographer, Cobbler, Cook, Cooper, Embalmer, Gem Cutter, Glassblower, Goldsmith, Gunsmith, Jeweler, Leatherworker, Mason, Painter, Potter, Shipwright, Stoneworker, Tailor, Tanner, Vintner, Weaver, Weaponsmith and Woodcarver.</p>\n<p>&nbsp;</p>\n<p><strong>Artist</strong>: Brushes and paints, hammer and chisels, rasps and files, and scrapers. Workshops also include easels or pedestals and supplies of canvas, parchment, vellum, wood, clay or uncut stone.</p>\n<p><strong>Engineer</strong>: Hourglass, measuring rod, fuse cord, drafting compass, and T-square. Workshops also include pulleys, ropes, and drafting tables.</p>\n<p><strong>Herbalist</strong>: Pestle and mortar, small knives, pruning shears, and gloves. Workshops also include drying racks, strainers, funnels, bowls, and jars.</p>\n<p><strong>Navigator</strong>: Quadrant, astrolabe, charts and compasses, hourglass, and sounding line.</p>\n<p><strong>Physician</strong>: Needles and sutures, bandages, scalpel, vinegar, forceps, and a speculum. Workshops also include anatomical drawings, assorted implements, and a surgery table.&nbsp;</p>"
		},
		{
			"id": "Worms",
			"name": "Worms",
			"description": ""
		},
		{
			"id": "Writing Kit",
			"name": "Writing Kit",
			"description": ""
		},
		{
			"id": "Zweihander",
			"name": "Zweihander",
			"description": ""
		}
	]
}
